%YAML 1.1
%TAG !u! tag:unity3d.com,2011:
--- !u!114 &11400000
MonoBehaviour:
  m_ObjectHideFlags: 0
  m_PrefabParentObject: {fileID: 0}
  m_PrefabInternal: {fileID: 0}
  m_GameObject: {fileID: 0}
  m_Enabled: 1
  m_EditorHideFlags: 0
  m_Script: {fileID: 11500000, guid: 6986cd59941ae94418f1de1b31dd6a73, type: 3}
  m_Name: Pistol
  m_EditorClassIdentifier: 
  m_ID: 1035165363
  m_ConsumableItem:
    m_ItemType: {fileID: 11400000, guid: dd688f9c8dd63f44391f3ddfdff3d339, type: 2}
    m_Capacity: 2147483647
  m_AdditionalConsumableItems: []
  m_DualWieldItems:
  - m_ItemType: {fileID: 11400000, guid: 2580c6a461a1a794a970914c497c3ba2, type: 2}
    m_PrimaryName: 0
  - m_ItemType: {fileID: 11400000, guid: 0e25784e54ca03c4fa7b85674af09183, type: 2}
    m_PrimaryName: 0
