%YAML 1.1
%TAG !u! tag:unity3d.com,2011:
--- !u!78 &1
TagManager:
  serializedVersion: 2
  tags:
  - Enemy
  - Ground
  - Camp
  - Collection_Point
  - Collection_Object
  - Ally
  - Terrain
  layers:
  - Default
  - TransparentFX
  - Ignore Raycast
  - 
  - Water
  - UI
  - 
  - 
  - RedTeam
  - BlueTeam
  - GreenTeam
  - YellowTeam
  - Explosive
  - 
  - 
  - 
  - 
  - 
  - 
  - 
  - 
  - 
  - Ledge
  - Climb
  - Moveable
  - Vault
  - Cover
  - CharacterCollider
  - VisualEffect
  - MovingPlatform
  - Enemy
  - Player
  m_SortingLayers:
  - name: Default
    uniqueID: 0
    locked: 0
  - name: Default
    uniqueID: 0
    locked: 0
