%YAML 1.1
%TAG !u! tag:unity3d.com,2011:
--- !u!114 &11400000
MonoBehaviour:
  m_ObjectHideFlags: 0
  m_PrefabParentObject: {fileID: 0}
  m_PrefabInternal: {fileID: 0}
  m_GameObject: {fileID: 0}
  m_Enabled: 1
  m_EditorHideFlags: 0
  m_Script: {fileID: 11500000, guid: b23f08d2ae4cba14087c1ed36193d82b, type: 3}
  m_Name: Ammo
  m_EditorClassIdentifier: 
  mBehaviorSource:
    behaviorName: Ammo
    behaviorDescription: 
    mTaskData:
      types: []
      parentIndex: 
      startIndex: 
      variableStartIndex: 
      JSONSerialization: "{\n\t\"EntryTask\":{\n\t\t\"Type\":\"BehaviorDesigner.Runtime.Tasks.EntryTask\",\n\t\t\"NodeData\":{\n\t\t\t\"Offset\":\"(0,0)\"\n\t\t},\n\t\t\"ID\":0,\n\t\t\"Name\":\"Entry\",\n\t\t\"Instant\":true\n\t},\n\t\"RootTask\":{\n\t\t\"Type\":\"BehaviorDesigner.Runtime.Tasks.Sequence\",\n\t\t\"NodeData\":{\n\t\t\t\"Offset\":\"(3.58996773,114.480019)\",\n\t\t\t\"Comment\":\"Get
        more ammo if running low\"\n\t\t},\n\t\t\"ID\":1,\n\t\t\"Name\":\"Sequence\",\n\t\t\"Instant\":true,\n\t\t\"-847102732\":\"Both\",\n\t\t\"Children\":[{\n\t\t\t\"Type\":\"BehaviorDesigner.Runtime.Tasks.Inverter\",\n\t\t\t\"NodeData\":{\n\t\t\t\t\"Offset\":\"(-319.810059,122.079987)\"\n\t\t\t},\n\t\t\t\"ID\":2,\n\t\t\t\"Name\":\"Inverter\",\n\t\t\t\"Instant\":true,\n\t\t\t\"Children\":[{\n\t\t\t\t\"Type\":\"BehaviorDesigner.Runtime.Tasks.ThirdPersonController.HasAmmo\",\n\t\t\t\t\"NodeData\":{\n\t\t\t\t\t\"Offset\":\"(0.1899414,109.880005)\"\n\t\t\t\t},\n\t\t\t\t\"ID\":3,\n\t\t\t\t\"Name\":\"Has
        Ammo\",\n\t\t\t\t\"Instant\":true,\n\t\t\t\t\"410638968\":{\n\t\t\t\t\t\"Type\":\"BehaviorDesigner.Runtime.SharedGameObject\",\n\t\t\t\t\t\"Name\":\"\"\n\t\t\t\t},\n\t\t\t\t\"-1875255814\":\"Primary\"\n\t\t\t}]\n\t\t},{\n\t\t\t\"Type\":\"BehaviorDesigner.Runtime.Tasks.ThirdPersonController.SetAim\",\n\t\t\t\"NodeData\":{\n\t\t\t\t\"Offset\":\"(-202.210083,122.079987)\"\n\t\t\t},\n\t\t\t\"ID\":4,\n\t\t\t\"Name\":\"Set
        Aim\",\n\t\t\t\"Instant\":true,\n\t\t\t\"410638968\":{\n\t\t\t\t\"Type\":\"BehaviorDesigner.Runtime.SharedGameObject\",\n\t\t\t\t\"Name\":\"\"\n\t\t\t},\n\t\t\t\"208729684\":{\n\t\t\t\t\"Type\":\"BehaviorDesigner.Runtime.SharedBool\",\n\t\t\t\t\"Name\":\"\",\n\t\t\t\t\"637395212\":false\n\t\t\t},\n\t\t\t\"433586028\":{\n\t\t\t\t\"Type\":\"BehaviorDesigner.Runtime.SharedGameObject\",\n\t\t\t\t\"Name\":\"\"\n\t\t\t}\n\t\t},{\n\t\t\t\"Type\":\"BehaviorDesigner.Runtime.Tasks.Wait\",\n\t\t\t\"NodeData\":{\n\t\t\t\t\"Offset\":\"(-25.8100586,122.079987)\",\n\t\t\t\t\"Comment\":\"Wait
        a moment before transitioning\"\n\t\t\t},\n\t\t\t\"ID\":5,\n\t\t\t\"Name\":\"Wait\",\n\t\t\t\"Instant\":true,\n\t\t\t\"-1873364295\":{\n\t\t\t\t\"Type\":\"BehaviorDesigner.Runtime.SharedFloat\",\n\t\t\t\t\"Name\":\"\",\n\t\t\t\t\"1384598892\":0.2\n\t\t\t},\n\t\t\t\"324357607\":{\n\t\t\t\t\"Type\":\"BehaviorDesigner.Runtime.SharedBool\",\n\t\t\t\t\"Name\":\"\",\n\t\t\t\t\"637395212\":false\n\t\t\t},\n\t\t\t\"866300721\":{\n\t\t\t\t\"Type\":\"BehaviorDesigner.Runtime.SharedFloat\",\n\t\t\t\t\"Name\":\"\",\n\t\t\t\t\"1384598892\":0\n\t\t\t},\n\t\t\t\"866300483\":{\n\t\t\t\t\"Type\":\"BehaviorDesigner.Runtime.SharedFloat\",\n\t\t\t\t\"Name\":\"\",\n\t\t\t\t\"1384598892\":0\n\t\t\t}\n\t\t},{\n\t\t\t\"Type\":\"BehaviorDesigner.Runtime.Tasks.ReturnSuccess\",\n\t\t\t\"NodeData\":{\n\t\t\t\t\"Offset\":\"(150.387512,118.077362)\"\n\t\t\t},\n\t\t\t\"ID\":6,\n\t\t\t\"Name\":\"Return
        Success\",\n\t\t\t\"Instant\":true,\n\t\t\t\"Children\":[{\n\t\t\t\t\"Type\":\"BehaviorDesigner.Runtime.Tasks.ThirdPersonController.StartAbility\",\n\t\t\t\t\"NodeData\":{\n\t\t\t\t\t\"Offset\":\"(-0.0473022461,108.512177)\",\n\t\t\t\t\t\"Comment\":\"Start
        Running\"\n\t\t\t\t},\n\t\t\t\t\"ID\":7,\n\t\t\t\t\"Name\":\"Start Ability\",\n\t\t\t\t\"Instant\":true,\n\t\t\t\t\"410638968\":{\n\t\t\t\t\t\"Type\":\"BehaviorDesigner.Runtime.SharedGameObject\",\n\t\t\t\t\t\"Name\":\"\"\n\t\t\t\t},\n\t\t\t\t\"-589971334\":{\n\t\t\t\t\t\"Type\":\"BehaviorDesigner.Runtime.SharedString\",\n\t\t\t\t\t\"Name\":\"\",\n\t\t\t\t\t\"1394878773\":\"Opsive.ThirdPersonController.Wrappers.Abilities.SpeedChange\"\n\t\t\t\t},\n\t\t\t\t\"1243292344\":{\n\t\t\t\t\t\"Type\":\"BehaviorDesigner.Runtime.SharedInt\",\n\t\t\t\t\t\"Name\":null,\n\t\t\t\t\t\"-1021162638\":0\n\t\t\t\t}\n\t\t\t}]\n\t\t},{\n\t\t\t\"Type\":\"BehaviorDesigner.Runtime.Tasks.Movement.Seek\",\n\t\t\t\"NodeData\":{\n\t\t\t\t\"Offset\":\"(283.647156,122.079994)\"\n\t\t\t},\n\t\t\t\"ID\":8,\n\t\t\t\"Name\":\"Seek\",\n\t\t\t\"Instant\":true,\n\t\t\t\"19030471\":{\n\t\t\t\t\"Type\":\"BehaviorDesigner.Runtime.SharedGameObject\",\n\t\t\t\t\"Name\":\"Ammo\",\n\t\t\t\t\"IsShared\":true\n\t\t\t},\n\t\t\t\"-6939\":{\n\t\t\t\t\"Type\":\"BehaviorDesigner.Runtime.SharedVector3\",\n\t\t\t\t\"Name\":\"\",\n\t\t\t\t\"910474292\":\"(0,0,0)\"\n\t\t\t},\n\t\t\t\"-2009062114\":{\n\t\t\t\t\"Type\":\"BehaviorDesigner.Runtime.SharedFloat\",\n\t\t\t\t\"Name\":\"\",\n\t\t\t\t\"1384598892\":10\n\t\t\t},\n\t\t\t\"413713500\":{\n\t\t\t\t\"Type\":\"BehaviorDesigner.Runtime.SharedFloat\",\n\t\t\t\t\"Name\":\"\",\n\t\t\t\t\"1384598892\":120\n\t\t\t},\n\t\t\t\"-2097202087\":{\n\t\t\t\t\"Type\":\"BehaviorDesigner.Runtime.SharedFloat\",\n\t\t\t\t\"Name\":null,\n\t\t\t\t\"1384598892\":0.5\n\t\t\t}\n\t\t},{\n\t\t\t\"Type\":\"BehaviorDesigner.Runtime.Tasks.ThirdPersonController.StopAbility\",\n\t\t\t\"NodeData\":{\n\t\t\t\t\"Offset\":\"(386.938782,115.714294)\",\n\t\t\t\t\"Comment\":\"Stop
        Running\"\n\t\t\t},\n\t\t\t\"ID\":9,\n\t\t\t\"Name\":\"Stop Ability\",\n\t\t\t\"Instant\":true,\n\t\t\t\"410638968\":{\n\t\t\t\t\"Type\":\"BehaviorDesigner.Runtime.SharedGameObject\",\n\t\t\t\t\"Name\":\"\"\n\t\t\t},\n\t\t\t\"-589971334\":{\n\t\t\t\t\"Type\":\"BehaviorDesigner.Runtime.SharedString\",\n\t\t\t\t\"Name\":\"\",\n\t\t\t\t\"1394878773\":\"Opsive.ThirdPersonController.Wrappers.Abilities.SpeedChange\"\n\t\t\t},\n\t\t\t\"1243292344\":{\n\t\t\t\t\"Type\":\"BehaviorDesigner.Runtime.SharedInt\",\n\t\t\t\t\"Name\":null,\n\t\t\t\t\"-1021162638\":0\n\t\t\t}\n\t\t},{\n\t\t\t\"Type\":\"BehaviorDesigner.Runtime.Tasks.ThirdPersonController.StartAbility\",\n\t\t\t\"NodeData\":{\n\t\t\t\t\"Offset\":\"(510,124)\",\n\t\t\t\t\"Comment\":\"Pickup
        Ammo\\n\"\n\t\t\t},\n\t\t\t\"ID\":10,\n\t\t\t\"Name\":\"Start Ability\",\n\t\t\t\"Instant\":true,\n\t\t\t\"410638968\":{\n\t\t\t\t\"Type\":\"BehaviorDesigner.Runtime.SharedGameObject\",\n\t\t\t\t\"Name\":\"\"\n\t\t\t},\n\t\t\t\"-589971334\":{\n\t\t\t\t\"Type\":\"BehaviorDesigner.Runtime.SharedString\",\n\t\t\t\t\"Name\":\"\",\n\t\t\t\t\"1394878773\":\"Opsive.ThirdPersonController.Wrappers.Abilities.PickupItem\"\n\t\t\t},\n\t\t\t\"1243292344\":{\n\t\t\t\t\"Type\":\"BehaviorDesigner.Runtime.SharedInt\",\n\t\t\t\t\"Name\":null,\n\t\t\t\t\"-1021162638\":0\n\t\t\t}\n\t\t},{\n\t\t\t\"Type\":\"BehaviorDesigner.Runtime.Tasks.Wait\",\n\t\t\t\"NodeData\":{\n\t\t\t\t\"Offset\":\"(690,120)\",\n\t\t\t\t\"Comment\":\"Wait
        a moment to pickup the health\\n\"\n\t\t\t},\n\t\t\t\"ID\":11,\n\t\t\t\"Name\":\"Wait\",\n\t\t\t\"Instant\":true,\n\t\t\t\"-1873364295\":{\n\t\t\t\t\"Type\":\"BehaviorDesigner.Runtime.SharedFloat\",\n\t\t\t\t\"Name\":\"\",\n\t\t\t\t\"1384598892\":0.2\n\t\t\t},\n\t\t\t\"324357607\":{\n\t\t\t\t\"Type\":\"BehaviorDesigner.Runtime.SharedBool\",\n\t\t\t\t\"Name\":\"\",\n\t\t\t\t\"637395212\":false\n\t\t\t},\n\t\t\t\"866300721\":{\n\t\t\t\t\"Type\":\"BehaviorDesigner.Runtime.SharedFloat\",\n\t\t\t\t\"Name\":\"\",\n\t\t\t\t\"1384598892\":0\n\t\t\t},\n\t\t\t\"866300483\":{\n\t\t\t\t\"Type\":\"BehaviorDesigner.Runtime.SharedFloat\",\n\t\t\t\t\"Name\":\"\",\n\t\t\t\t\"1384598892\":0\n\t\t\t}\n\t\t}]\n\t},\n\t\"Variables\":[{\n\t\t\"Type\":\"BehaviorDesigner.Runtime.SharedGameObject\",\n\t\t\"Name\":\"Ammo\",\n\t\t\"IsShared\":true\n\t}]\n}"
      fieldSerializationData:
        typeName: []
        fieldNameHash: 
        startIndex: 
        dataPosition: 
        unityObjects: []
        byteData: 
        byteDataArray: 
      Version: 1.5.6
